<?xml version="1.0" encoding="utf-8"?>
<!-- Generator: Adobe Illustrator 21.0.0, SVG Export Plug-In . SVG Version: 6.00 Build 0)  -->
<svg version="1.1" id="Layer_1" xmlns="http://www.w3.org/2000/svg" xmlns:xlink="http://www.w3.org/1999/xlink" x="0px" y="0px"
	 viewBox="0 0 376 98" style="enable-background:new 0 0 376 98;" xml:space="preserve">
<style type="text/css">
	.st0{fill:#06A4DE;}
	.st1{fill:#00549C;}
	.st2{fill:#FFFFFF;}
	.st3{fill:#EC1C24;}
	.st4{fill:#231F20;}
</style>
<g>
	<rect x="9.8" y="15.7" class="st0" width="92.3" height="71"/>
	<path class="st1" d="M72.9,29.8l-4.8,8.9c0.7,3.3,0.7,7.1-0.1,11.3C65.9,62.3,60,70.6,50.7,74.7h12.7l14.6-31.4l3.5,31.4h14.7
		l-8.2-45H72.9z"/>
	<path class="st2" d="M43.4,27.6H23.6l-1.8,10.5h14.9v0h2.6c7.9,0,10.5,2.5,8.8,11.9c-1.5,8.5-5.9,12.1-12.7,12.1h-3.1l3.2-18.3
		l-16.2,8.5l-3.5,20.3h19.4c14.4,0,25-6.5,28-23.4C65.7,34.4,57.9,27.6,43.4,27.6z"/>
</g>
<g>
	<g>
		<path class="st0" d="M129.9,17.1c2.3,0.8,4.2,2.2,5.7,4.2c1.2,1.7,2,3.5,2.4,5.4s0.6,3.8,0.6,5.5c0,4.4-0.9,8.2-2.7,11.3
			c-2.4,4.2-6.2,6.2-11.2,6.2h-14.4V16.4h14.4C126.8,16.4,128.5,16.6,129.9,17.1z M117.1,22.2V44h6.4c3.3,0,5.6-1.6,6.9-4.9
			c0.7-1.8,1.1-3.9,1.1-6.4c0-3.4-0.5-6-1.6-7.8c-1.1-1.8-3.2-2.7-6.4-2.7H117.1z"/>
		<path class="st0" d="M168.6,22.3h-17.7v7.1h16.2v5.8h-16.2v8.6h18.5v6h-25.3V16.4h24.5V22.3z"/>
		<path class="st0" d="M199.5,22.3h-17.7v7.1h16.2v5.8h-16.2v8.6h18.5v6H175V16.4h24.5V22.3z"/>
		<path class="st1" d="M215.3,16.4h7.9L235,49.8h-7.6l-2.2-6.9H213l-2.3,6.9h-7.3L215.3,16.4z M214.9,37.2h8.6L219.2,24L214.9,37.2z
			"/>
		<path class="st1" d="M261.7,26.8c-0.5-2.3-1.8-3.9-3.9-4.8c-1.1-0.5-2.4-0.7-3.8-0.7c-2.7,0-4.9,1-6.6,3c-1.7,2-2.6,5.1-2.6,9.1
			c0,4.1,0.9,7,2.8,8.7c1.9,1.7,4,2.6,6.4,2.6c2.3,0,4.3-0.7,5.8-2c1.5-1.3,2.4-3.1,2.8-5.3h-7.7v-5.6h13.9v17.9h-4.6l-0.7-4.2
			c-1.3,1.6-2.6,2.7-3.6,3.3c-1.8,1.1-4.1,1.7-6.8,1.7c-4.4,0-8.1-1.5-10.9-4.6c-2.9-3.1-4.4-7.3-4.4-12.6c0-5.4,1.5-9.7,4.5-13
			c3-3.3,6.9-4.9,11.8-4.9c4.2,0,7.7,1.1,10.2,3.2c2.6,2.2,4.1,4.8,4.4,8.1H261.7z"/>
		<path class="st1" d="M300.1,22.3h-17.7v7.1h16.2v5.8h-16.2v8.6h18.5v6h-25.3V16.4h24.5V22.3z"/>
		<path class="st1" d="M306.2,16.4h7.3l13.3,23.3V16.4h6.5v33.4h-7l-13.6-23.7v23.7h-6.5V16.4z"/>
		<path class="st1" d="M364.1,16.4v5.9h-10v27.5h-7V22.3h-10v-5.9H364.1z"/>
	</g>
	<rect x="106.8" y="55.6" class="st3" width="257.8" height="4.8"/>
	<g>
		<path class="st4" d="M118.6,83.7v-8.4c0-0.7-0.2-1.4-0.5-1.9s-0.8-0.9-1.4-1l-1.9,2.3l-2-2.3c-0.6,0.2-1.2,0.8-1.8,1.8
			c-0.7,1.1-1,2.4-1,3.7c0,1.4,0.2,2.6,0.8,3.5c0.6,1,1.4,1.5,2.5,1.5c0.7,0,1.2-0.3,1.7-0.9l0.7,0.5c-0.6,0.9-1.4,1.3-2.4,1.3
			c-1.4,0-2.4-0.5-3.1-1.7c-0.7-1.1-1-2.5-1-4.3c0-1.6,0.5-3.1,1.3-4.3c0.8-1.2,1.7-1.9,2.7-2.1l1.7,2l1.6-1.9c1,0,1.7,0.4,2.3,1.1
			c0.6,0.7,0.8,1.6,0.8,2.7v8.4H118.6z"/>
		<path class="st4" d="M115.6,70.2v-1.8h0.9v0.9h6.9v0.9H115.6z"/>
		<path class="st4" d="M130.5,77.7c0,1.7-0.4,3.2-1.3,4.3c-0.9,1.2-2.1,1.9-3.7,1.9c-0.5,0-1-0.1-1.5-0.2c-0.5-0.2-0.9-0.4-1.3-0.7
			c-0.4-0.3-0.7-0.7-1-1.1c-0.3-0.4-0.5-0.9-0.6-1.3h0.9c0.3,0.7,0.7,1.3,1.4,1.8c0.7,0.4,1.4,0.7,2.2,0.7c1.3,0,2.3-0.5,3-1.6
			c0.7-1,1-2.2,1-3.7s-0.3-2.7-1-3.7c-0.7-1.1-1.8-1.6-3-1.6c-0.8,0-1.5,0.2-2.1,0.7c-0.7,0.5-1.1,1-1.4,1.8h-1
			c0.1-0.5,0.3-0.9,0.6-1.3s0.6-0.8,1-1.1c0.4-0.3,0.8-0.5,1.3-0.7c0.5-0.2,1-0.2,1.5-0.2c1.6,0,2.8,0.6,3.7,1.9
			C130.1,74.5,130.5,76,130.5,77.7z"/>
		<path class="st4" d="M132.4,83.7v-12h0.9v12H132.4z M135.1,83.7v-12h0.9v12H135.1z"/>
		<path class="st4" d="M146.5,83.7v-8c0-1-0.3-1.8-0.9-2.4c-0.6-0.6-1.4-0.9-2.5-0.9c-1,0-1.9,0.3-2.8,1c-0.9,0.7-1.3,1.5-1.3,2.4v8
			h-0.9v-12h0.9v1.7c0.4-0.6,1-1,1.7-1.4c0.8-0.4,1.6-0.5,2.4-0.5c0.6,0,1.2,0.1,1.7,0.3c0.5,0.2,1,0.5,1.4,0.8
			c0.4,0.4,0.7,0.8,0.9,1.3c0.2,0.5,0.3,1,0.3,1.6v8.2H146.5z"/>
		<path class="st4" d="M157.9,83.7V82c-0.4,0.6-1,1-1.7,1.4c-0.8,0.4-1.5,0.5-2.3,0.5c-1.3,0-2.3-0.4-3.1-1.1
			c-0.8-0.8-1.2-1.7-1.2-2.8v-8.2h0.9v8.2c0,0.9,0.3,1.7,1,2.2c0.6,0.6,1.5,0.8,2.5,0.8c1,0,1.9-0.3,2.8-1c0.8-0.7,1.3-1.4,1.3-2.4
			v-8h0.9v12H157.9z"/>
		<path class="st4" d="M168.9,83.7v-8c0-1-0.4-1.9-1.1-2.5c-0.7-0.5-1.6-0.8-2.6-0.8c-1.7,0-2.9,0.6-3.7,1.8v9.5h-0.9v-9.8
			c1.1-1.6,2.7-2.4,4.6-2.4c1.3,0,2.4,0.3,3.2,1c0.9,0.7,1.4,1.7,1.4,2.9v8.3H168.9z"/>
		<path class="st4" d="M180.9,80c0,1.2-0.5,2.2-1.4,2.9c-0.9,0.7-2,1-3.3,1c-1.3,0-2.4-0.3-3.3-1c-1-0.7-1.4-1.7-1.4-2.9h0.9
			c0,1,0.4,1.7,1.2,2.2c0.7,0.5,1.6,0.8,2.6,0.8c1,0,1.9-0.2,2.6-0.8c0.8-0.6,1.2-1.3,1.2-2.2c0-1.3-1.2-2.1-3.7-2.6
			c-0.8-0.1-1.4-0.3-1.9-0.4c-0.5-0.1-0.9-0.3-1.2-0.4c-1-0.5-1.5-1.1-1.5-2c0-0.9,0.4-1.7,1.3-2.3c0.8-0.6,1.8-0.8,3-0.8
			c1.2,0,2.2,0.3,3,0.8c0.9,0.6,1.5,1.4,1.7,2.4h-1c-0.2-0.7-0.7-1.3-1.5-1.7c-0.7-0.4-1.4-0.5-2.3-0.5c-0.8,0-1.6,0.2-2.3,0.6
			c-0.7,0.4-1,0.9-1,1.5c0,0.6,0.4,1,1.3,1.4c0.2,0.1,0.5,0.2,0.9,0.3c0.4,0.1,1,0.2,1.6,0.3C179.4,77.1,180.9,78.3,180.9,80z"/>
		<path class="st4" d="M179.5,88.2v-2.4h-1.2v-0.9h2.1v3.3H179.5z"/>
		<path class="st4" d="M191.7,77.7c0,1.9-0.6,3.4-1.7,4.5c-1.1,1.1-2.6,1.6-4.5,1.6c-0.2,0-0.4,0-0.6,0c-0.2,0-0.4,0-0.6,0
			l-2.9-11.8l0.9-0.2l2.7,11.2c1.7,0.1,3.1-0.3,4.1-1.2c1-0.9,1.6-2.2,1.6-4c0-1.6-0.4-2.9-1.3-3.8s-2.1-1.3-3.6-1.3
			c-0.1,0-0.2,0-0.4,0s-0.2,0-0.4,0v-0.9c0.1,0,0.3,0,0.4,0c0.1,0,0.3,0,0.4,0c1.9,0,3.3,0.5,4.3,1.6
			C191.2,74.3,191.7,75.8,191.7,77.7z"/>
		<path class="st4" d="M194.8,69.8v13.9h-0.9V70c0-1.1,0.4-2,1.3-2.7l-0.7-0.8l-1.5,1.3l-2.6-2.1L191,65l2,1.6l1.7-1.4l1.5,1.8
			C195.3,67.9,194.8,68.8,194.8,69.8z"/>
		<path class="st4" d="M205.3,83.7v-8c0-1-0.3-1.8-0.9-2.4c-0.6-0.6-1.4-0.9-2.5-0.9c-1,0-1.9,0.3-2.8,1c-0.9,0.7-1.3,1.5-1.3,2.4v8
			h-0.9v-12h0.9v1.7c0.4-0.6,1-1,1.7-1.4c0.8-0.4,1.6-0.5,2.4-0.5c0.6,0,1.2,0.1,1.7,0.3c0.5,0.2,1,0.5,1.4,0.8
			c0.4,0.4,0.7,0.8,0.9,1.3s0.3,1,0.3,1.6v8.2H205.3z"/>
		<path class="st4" d="M213,83.9c-1.6,0-2.9-0.4-3.8-1.1c-0.9-0.7-1.3-1.6-1.3-2.8c0-0.9,0.3-1.6,0.9-2.3c0.5-0.6,1.1-0.9,1.7-1.1
			c-0.6,0-1.2-0.3-1.7-0.7s-0.7-1-0.7-1.6c0-0.4,0.1-0.7,0.3-1.1s0.4-0.6,0.7-0.9c0.3-0.2,0.7-0.4,1.1-0.6c0.4-0.1,0.9-0.2,1.3-0.2
			c0.6,0,1.1,0.1,1.5,0.2v0.9c-0.4-0.1-0.9-0.2-1.5-0.2c-0.7,0-1.3,0.2-1.7,0.5c-0.5,0.3-0.7,0.8-0.7,1.3c0,0.6,0.3,1.1,0.9,1.4
			c0.5,0.3,1.2,0.5,1.9,0.5h1.1V77h-0.8c-0.8,0-1.6,0.3-2.2,0.8c-0.7,0.6-1.1,1.3-1.1,2.2c0,0.9,0.4,1.6,1.1,2.2
			c0.8,0.6,1.8,0.8,3,0.8c1.5,0,2.7-0.5,3.7-1.4v-9.9h0.9V82C216.5,83.3,215,83.9,213,83.9z"/>
		<path class="st4" d="M219.9,78.9V78h4.4v0.9H219.9z"/>
		<path class="st4" d="M226.9,83.7v-12h0.9v12H226.9z M229.6,83.7v-12h0.9v12H229.6z"/>
		<path class="st4" d="M243.8,77.7c0,1.8-0.5,3.3-1.6,4.5c-1,1.2-2.4,1.7-4.1,1.7c-1.7,0-3-0.6-4.1-1.7c-1-1.2-1.6-2.6-1.6-4.5
			c0-0.2,0-0.5,0.1-1h3.8v0.9h-3v0.2c0,1.5,0.4,2.8,1.3,3.8c0.9,1,2,1.5,3.4,1.5s2.5-0.5,3.4-1.5c0.9-1,1.3-2.3,1.3-3.8
			s-0.4-2.8-1.3-3.8c-0.9-1-2-1.5-3.4-1.5c-2.1,0-3.5,1-4.3,2.9h-1c0.4-1.2,1-2.1,2-2.8c0.9-0.7,2-1,3.3-1c1.7,0,3,0.6,4.1,1.7
			C243.2,74.4,243.8,75.9,243.8,77.7z"/>
		<path class="st4" d="M253.8,83.7v-8c0-1-0.4-1.9-1.1-2.5c-0.7-0.5-1.6-0.8-2.6-0.8c-1.7,0-2.9,0.6-3.8,1.8v9.5h-0.9v-9.8
			c1.1-1.6,2.7-2.4,4.7-2.4c1.3,0,2.4,0.3,3.2,1c0.9,0.7,1.4,1.7,1.4,2.9v8.3H253.8z"/>
		<path class="st4" d="M265.9,79c0,1.4-0.5,2.6-1.3,3.5c-0.9,0.9-2.3,1.4-4,1.4c-1.3,0-2.5-0.2-3.5-0.6v-6.9c0-0.5,0.3-1.1,0.8-1.6
			c0.5-0.5,0.8-0.9,0.8-1.2v-1l-1.4,1.1c-0.2-0.3-0.8-0.9-1.7-1.6l0.5-0.6c0.2,0.2,0.5,0.3,0.7,0.5c0.2,0.2,0.4,0.4,0.5,0.6l1.3-1
			h0.9v2c0,0.4-0.3,0.8-0.8,1.3c-0.5,0.6-0.8,1.1-0.8,1.5v6c0.8,0.3,1.7,0.4,2.6,0.4c1.4,0,2.5-0.4,3.2-1.1c0.8-0.7,1.2-1.7,1.2-2.9
			c0-1.2-0.4-2.2-1.1-3c-0.8-0.8-1.8-1.3-3-1.6l3-2.9l0.6,0.5l-2.1,2C264.8,75,265.9,76.7,265.9,79z"/>
		<path class="st4" d="M264.6,70.2v-2.7h0.9v2.7H264.6z"/>
		<path class="st4" d="M272.5,83.7V76c0-1.1-0.3-2-0.8-2.7c-0.6-0.6-1.4-1-2.5-1c-1,0-1.7,0.2-2.3,0.7v-0.9c0.8-0.4,1.6-0.6,2.4-0.6
			c1.4,0,2.4,0.4,3.2,1.2c0.7,0.7,1,1.7,1,3v8H272.5z"/>
		<path class="st4" d="M291.1,82.8c-0.9,0.7-2,1.1-3.3,1.1s-2.4-0.4-3.3-1.1c-0.9-0.7-1.4-1.7-1.4-2.8v-8.2h0.9v8.2
			c0,0.5,0.1,0.9,0.3,1.2c0.2,0.4,0.5,0.7,0.8,1c0.3,0.3,0.7,0.5,1.2,0.6s0.9,0.2,1.4,0.2c0.5,0,1-0.1,1.5-0.2
			c0.4-0.2,0.8-0.4,1.2-0.6c0.3-0.3,0.6-0.6,0.8-1c0.2-0.4,0.3-0.8,0.3-1.2V68.7h0.9v11.2C292.5,81.1,292,82.1,291.1,82.8z"/>
		<path class="st4" d="M303.5,80c0,1.2-0.5,2.2-1.4,2.9c-0.9,0.7-2,1-3.3,1c-1.3,0-2.4-0.3-3.3-1c-1-0.7-1.4-1.7-1.4-2.9h0.9
			c0,1,0.4,1.7,1.2,2.2c0.7,0.5,1.6,0.8,2.6,0.8c1,0,1.9-0.2,2.6-0.8c0.8-0.6,1.2-1.3,1.2-2.2c0-1.3-1.2-2.1-3.7-2.6
			c-0.8-0.1-1.4-0.3-1.9-0.4c-0.5-0.1-0.9-0.3-1.2-0.4c-1-0.5-1.5-1.1-1.5-2c0-0.9,0.4-1.7,1.3-2.3c0.8-0.6,1.8-0.8,3-0.8
			c1.2,0,2.2,0.3,3,0.8c0.9,0.6,1.5,1.4,1.7,2.4h-1c-0.2-0.7-0.7-1.3-1.5-1.7c-0.7-0.4-1.4-0.5-2.3-0.5c-0.8,0-1.6,0.2-2.3,0.6
			c-0.7,0.4-1,0.9-1,1.5c0,0.6,0.4,1,1.3,1.4c0.2,0.1,0.5,0.2,0.9,0.3c0.4,0.1,1,0.2,1.6,0.3C302.1,77.1,303.5,78.3,303.5,80z"/>
		<path class="st4" d="M304.7,74.9v-1.7h0.9V74h2v0.9H304.7z M304.7,82.2v-1.7h0.9v0.8h2v0.9H304.7z"/>
		<path class="st4" d="M317,83.7v-8c0-1-0.4-1.9-1.1-2.5c-0.7-0.5-1.6-0.8-2.6-0.8c-1.7,0-2.9,0.6-3.8,1.8v9.5h-0.9v-9.8
			c1.1-1.6,2.7-2.4,4.7-2.4c1.3,0,2.4,0.3,3.2,1c0.9,0.7,1.4,1.7,1.4,2.9v8.3H317z"/>
		<path class="st4" d="M314,70.2v-1.8h0.9v0.9h6.9v0.9H314z"/>
		<path class="st4" d="M328.4,83.7V82c-0.4,0.6-1,1-1.7,1.4c-0.8,0.4-1.5,0.5-2.3,0.5c-1.3,0-2.3-0.4-3.1-1.1
			c-0.8-0.8-1.2-1.7-1.2-2.8v-8.2h0.9v8.2c0,0.9,0.3,1.7,1,2.2c0.6,0.6,1.5,0.8,2.5,0.8c1,0,1.9-0.3,2.8-1c0.8-0.7,1.3-1.4,1.3-2.4
			v-8h0.9v12H328.4z"/>
		<path class="st4" d="M339.8,79c0,1.4-0.5,2.6-1.4,3.5c-0.9,0.9-2.3,1.4-4,1.4c-1.3,0-2.5-0.2-3.5-0.6V71.7h0.9v10.9
			c0.8,0.3,1.7,0.4,2.6,0.4c1.4,0,2.5-0.4,3.2-1.1c0.8-0.7,1.2-1.7,1.2-2.9c0-1.2-0.4-2.2-1.1-3c-0.8-0.8-1.8-1.3-3-1.6l3-2.9
			l0.6,0.5l-2.1,2C338.6,75,339.8,76.7,339.8,79z"/>
		<path class="st4" d="M330.6,70.2v-0.9h7.8v-1.5h0.9v2.4H330.6z"/>
		<path class="st4" d="M350.3,77.7c0,1.7-0.4,3.2-1.3,4.3c-0.9,1.2-2.1,1.9-3.7,1.9c-0.5,0-1-0.1-1.5-0.2c-0.5-0.2-0.9-0.4-1.3-0.7
			c-0.4-0.3-0.7-0.7-1-1.1c-0.3-0.4-0.5-0.9-0.6-1.3h0.9c0.3,0.7,0.7,1.3,1.4,1.8c0.7,0.4,1.4,0.7,2.2,0.7c1.3,0,2.3-0.5,3-1.6
			c0.7-1,1-2.2,1-3.7s-0.3-2.7-1-3.7c-0.7-1.1-1.8-1.6-3-1.6c-0.8,0-1.5,0.2-2.1,0.7s-1.1,1-1.4,1.8h-1c0.1-0.5,0.3-0.9,0.6-1.3
			c0.3-0.4,0.6-0.8,1-1.1c0.4-0.3,0.8-0.5,1.3-0.7c0.5-0.2,1-0.2,1.5-0.2c1.6,0,2.8,0.6,3.7,1.9C349.9,74.5,350.3,76,350.3,77.7z"/>
		<path class="st4" d="M341.2,70.2v-0.9h8.7v0.9H341.2z"/>
		<path class="st4" d="M361.1,83.7v-8.4c0-0.7-0.2-1.4-0.5-1.9c-0.4-0.6-0.8-0.9-1.4-1l-1.9,2.3l-2-2.3c-0.6,0.2-1.2,0.8-1.8,1.8
			c-0.7,1.1-1,2.4-1,3.7c0,1.4,0.2,2.6,0.8,3.5c0.6,1,1.4,1.5,2.5,1.5c0.7,0,1.2-0.3,1.7-0.9l0.7,0.5c-0.6,0.9-1.4,1.3-2.4,1.3
			c-1.4,0-2.4-0.5-3.1-1.7c-0.7-1.1-1-2.5-1-4.3c0-1.6,0.5-3.1,1.3-4.3c0.8-1.2,1.7-1.9,2.7-2.1l1.7,2l1.6-1.9c1,0,1.7,0.4,2.3,1.1
			c0.6,0.7,0.8,1.6,0.8,2.7v8.4H361.1z"/>
	</g>
</g>
</svg>
