{
	"name"		:"Bootstrap",
	"folder"	:"bootstrap",
	"author"	:"Mango TM",
	"template"	:{
					"Default Page"		: "page",
					"Full Page"			: "fullpage",
					"Backend Template"	: "backend"
				}
}